{"count":949,"previous":null,"results":[{"url":"https:\/\/pokeapi.co\/api\/v2\/pokemon\/1\/","name":"bulbasaur"},{"url":"https:\/\/pokeapi.co\/api\/v2\/pokemon\/2\/","name":"ivysaur"},{"url":"https:\/\/pokeapi.co\/api\/v2\/pokemon\/3\/","name":"venusaur"}],"next":"https:\/\/pokeapi.co\/api\/v2\/pokemon\/?limit=3&offset=3"}
